\relax 
\catcode`"\active
\select@language{russian}
\@writefile{toc}{\select@language{russian}}
\@writefile{lof}{\select@language{russian}}
\@writefile{lot}{\select@language{russian}}
\@writefile{toc}{\contentsline {section}{\numberline {1}\IeC {\CYRV }\IeC {\cyrv }\IeC {\cyre }\IeC {\cyrd }\IeC {\cyre }\IeC {\cyrn }\IeC {\cyri }\IeC {\cyre }}{1}}
\@writefile{toc}{\contentsline {section}{\numberline {2}\IeC {\CYRM }\IeC {\cyro }\IeC {\cyrd }\IeC {\cyre }\IeC {\cyrl }\IeC {\cyrsftsn } \IeC {\cyrs }\IeC {\cyri }\IeC {\cyrs }\IeC {\cyrt }\IeC {\cyre }\IeC {\cyrm }\IeC {\cyrery }}{1}}
\@writefile{toc}{\contentsline {section}{\numberline {3}\IeC {\CYRM }\IeC {\cyre }\IeC {\cyrt }\IeC {\cyro }\IeC {\cyrd }\IeC {\cyrery } \IeC {\cyrv }\IeC {\cyrery }\IeC {\cyrch }\IeC {\cyri }\IeC {\cyrs }\IeC {\cyrl }\IeC {\cyre }\IeC {\cyrn }\IeC {\cyri }\IeC {\cyrishrt }. }{2}}
\@writefile{toc}{\contentsline {subsection}{\numberline {3.1}\IeC {\CYRP }\IeC {\cyro }\IeC {\cyri }\IeC {\cyrs }\IeC {\cyrk } \IeC {\cyro }\IeC {\cyrs }\IeC {\cyrn }\IeC {\cyro }\IeC {\cyrv }\IeC {\cyrn }\IeC {\cyro }\IeC {\cyrg }\IeC {\cyro } \IeC {\cyrs }\IeC {\cyro }\IeC {\cyrs }\IeC {\cyrt }\IeC {\cyro }\IeC {\cyrya }\IeC {\cyrn }\IeC {\cyri }\IeC {\cyrishrt } \IeC {\cyrs }\IeC {\cyri }\IeC {\cyrs }\IeC {\cyrt }\IeC {\cyre }\IeC {\cyrm }\IeC {\cyrery }}{2}}
\@writefile{toc}{\contentsline {subsection}{\numberline {3.2}\IeC {\CYRM }\IeC {\cyre }\IeC {\cyrt }\IeC {\cyro }\IeC {\cyrd } \IeC {\cyrm }\IeC {\cyro }\IeC {\cyrl }\IeC {\cyre }\IeC {\cyrk }\IeC {\cyru }\IeC {\cyrl }\IeC {\cyrya }\IeC {\cyrr }\IeC {\cyrn }\IeC {\cyro }\IeC {\cyrishrt } \IeC {\cyrd }\IeC {\cyri }\IeC {\cyrn }\IeC {\cyra }\IeC {\cyrm }\IeC {\cyri }\IeC {\cyrk }\IeC {\cyri }}{3}}
\newlabel{correct_P}{{1}{3}}
\newlabel{correct_L}{{2}{3}}
\@writefile{toc}{\contentsline {subsection}{\numberline {3.3}\IeC {\CYRM }\IeC {\cyre }\IeC {\cyrt }\IeC {\cyro }\IeC {\cyrd } \IeC {\CYRM }\IeC {\cyro }\IeC {\cyrn }\IeC {\cyrt }\IeC {\cyre }-\IeC {\CYRK }\IeC {\cyra }\IeC {\cyrr }\IeC {\cyrl }\IeC {\cyro }}{3}}
\@writefile{toc}{\contentsline {section}{\numberline {4}\IeC {\CYRR }\IeC {\cyra }\IeC {\cyrs }\IeC {\cyrs }\IeC {\cyrch }\IeC {\cyri }\IeC {\cyrt }\IeC {\cyrery }\IeC {\cyrv }\IeC {\cyra }\IeC {\cyre }\IeC {\cyrm }\IeC {\cyrery }\IeC {\cyre } \IeC {\cyrv }\IeC {\cyre }\IeC {\cyrl }\IeC {\cyri }\IeC {\cyrch }\IeC {\cyri }\IeC {\cyrn }\IeC {\cyrery }}{4}}
\@writefile{toc}{\contentsline {section}{\numberline {5}\IeC {\CYRR }\IeC {\cyre }\IeC {\cyrz }\IeC {\cyru }\IeC {\cyrl }\IeC {\cyrsftsn }\IeC {\cyrt }\IeC {\cyra }\IeC {\cyrt }\IeC {\cyrery }}{4}}
\newlabel{bigtable}{{1}{5}}
\gdef \LT@i {\LT@entry 
    {2}{21.99756pt}\LT@entry 
    {1}{79.06696pt}\LT@entry 
    {2}{49.76855pt}\LT@entry 
    {2}{51.76855pt}\LT@entry 
    {2}{21.99756pt}\LT@entry 
    {3}{103.64429pt}\LT@entry 
    {2}{49.76855pt}\LT@entry 
    {2}{49.76855pt}}
\@writefile{lof}{\contentsline {figure}{\numberline {1}{\ignorespaces \relax \fontsize  {9}{11}\selectfont  \abovedisplayskip 8.5\p@ plus3\p@ minus4\p@ \abovedisplayshortskip \z@ plus2\p@ \belowdisplayshortskip 4\p@ plus2\p@ minus2\p@ \def \leftmargin \leftmargini \parsep 4\p@ plus2\p@ minus\p@ \topsep 8\p@ plus2\p@ minus4\p@ \itemsep 4\p@ plus2\p@ minus\p@ {\leftmargin \leftmargini \topsep 4\p@ plus2\p@ minus2\p@ \parsep 2\p@ plus\p@ minus\p@ \itemsep \parsep }\belowdisplayskip \abovedisplayskip \IeC {\CYRZ }\IeC {\cyra }\IeC {\cyrv }\IeC {\cyri }\IeC {\cyrs }\IeC {\cyri }\IeC {\cyrm }\IeC {\cyro }\IeC {\cyrs }\IeC {\cyrt }\IeC {\cyrsftsn } \IeC {\cyrp }\IeC {\cyro }\IeC {\cyrt }\IeC {\cyre }\IeC {\cyrn }\IeC {\cyrc }\IeC {\cyri }\IeC {\cyra }\IeC {\cyrl }\IeC {\cyrsftsn }\IeC {\cyrn }\IeC {\cyro }\IeC {\cyrishrt } \IeC {\cyrerev }\IeC {\cyrn }\IeC {\cyre }\IeC {\cyrr }\IeC {\cyrg }\IeC {\cyri }\IeC {\cyri } \IeC {\cyro }\IeC {\cyrs }\IeC {\cyrn }\IeC {\cyro }\IeC {\cyrv }\IeC {\cyrn }\IeC {\cyro }\IeC {\cyrg }\IeC {\cyro } \IeC {\cyrs }\IeC {\cyro }\IeC {\cyrs }\IeC {\cyrt }\IeC {\cyro }\IeC {\cyrya }\IeC {\cyrn }\IeC {\cyri }\IeC {\cyrya } \IeC {\cyrn }\IeC {\cyra } \IeC {\cyro }\IeC {\cyrd }\IeC {\cyrn }\IeC {\cyru } \IeC {\cyrch }\IeC {\cyra }\IeC {\cyrs }\IeC {\cyrt }\IeC {\cyri }\IeC {\cyrc }\IeC {\cyru } \IeC {\cyrk }\IeC {\cyrl }\IeC {\cyra }\IeC {\cyrs }\IeC {\cyrt }\IeC {\cyre }\IeC {\cyrr }\IeC {\cyra } \IeC {\cyrv } \IeC {\cyrz }\IeC {\cyra }\IeC {\cyrv }\IeC {\cyri }\IeC {\cyrs }\IeC {\cyri }\IeC {\cyrm }\IeC {\cyro }\IeC {\cyrs }\IeC {\cyrt }\IeC {\cyri } \IeC {\cyro }\IeC {\cyrt } \IeC {\cyre }\IeC {\cyrg }\IeC {\cyro } \IeC {\cyrr }\IeC {\cyra }\IeC {\cyrz }\IeC {\cyrm }\IeC {\cyre }\IeC {\cyrr }\IeC {\cyra }.}}{7}}
\@writefile{lof}{\contentsline {figure}{\numberline {2}{\ignorespaces \IeC {\CYRO }\IeC {\cyrs }\IeC {\cyrn }\IeC {\cyro }\IeC {\cyrv }\IeC {\cyrn }\IeC {\cyrery }\IeC {\cyre } \IeC {\cyrk }\IeC {\cyro }\IeC {\cyrn }\IeC {\cyrf }\IeC {\cyri }\IeC {\cyrg }\IeC {\cyru }\IeC {\cyrr }\IeC {\cyra }\IeC {\cyrc }\IeC {\cyri }\IeC {\cyri } \IeC {\cyrk }\IeC {\cyrl }\IeC {\cyra }\IeC {\cyrs }\IeC {\cyrt }\IeC {\cyre }\IeC {\cyrr }\IeC {\cyro }\IeC {\cyrv }}}{8}}
\@writefile{lof}{\contentsline {figure}{\numberline {3}{\ignorespaces \IeC {\CYRP }\IeC {\cyrl }\IeC {\cyra }\IeC {\cyrv }\IeC {\cyrl }\IeC {\cyre }\IeC {\cyrn }\IeC {\cyri }\IeC {\cyre } \IeC {\cyrk }\IeC {\cyrl }\IeC {\cyra }\IeC {\cyrs }\IeC {\cyrt }\IeC {\cyre }\IeC {\cyrr }\IeC {\cyra } \IeC {\cyri }\IeC {\cyrz } 19 \IeC {\cyrch }\IeC {\cyra }\IeC {\cyrs }\IeC {\cyrt }\IeC {\cyri }\IeC {\cyrc }}}{9}}
\@writefile{lof}{\contentsline {figure}{\numberline {4}{\ignorespaces \IeC {\CYRP }\IeC {\cyrl }\IeC {\cyra }\IeC {\cyrv }\IeC {\cyrl }\IeC {\cyre }\IeC {\cyrn }\IeC {\cyri }\IeC {\cyre } \IeC {\cyrk }\IeC {\cyrl }\IeC {\cyra }\IeC {\cyrs }\IeC {\cyrt }\IeC {\cyre }\IeC {\cyrr }\IeC {\cyra } \IeC {\cyri }\IeC {\cyrz } 25 \IeC {\cyrch }\IeC {\cyra }\IeC {\cyrs }\IeC {\cyrt }\IeC {\cyri }\IeC {\cyrc }}}{9}}
\@writefile{lof}{\contentsline {figure}{\numberline {5}{\ignorespaces \IeC {\CYRP }\IeC {\cyrl }\IeC {\cyra }\IeC {\cyrv }\IeC {\cyrl }\IeC {\cyre }\IeC {\cyrn }\IeC {\cyri }\IeC {\cyre } \IeC {\cyrk }\IeC {\cyrl }\IeC {\cyra }\IeC {\cyrs }\IeC {\cyrt }\IeC {\cyre }\IeC {\cyrr }\IeC {\cyra } \IeC {\cyri }\IeC {\cyrz } 44 \IeC {\cyrch }\IeC {\cyra }\IeC {\cyrs }\IeC {\cyrt }\IeC {\cyri }\IeC {\cyrc }}}{9}}
